^C:\USERS\ПК\SOURCE\REPOS\HOMEWORK16.5\DEBUG\HOMEWORK16.5.OBJ
C:\USERS\Пк\SOURCE\REPOS\HOMEWORK16.5\DEBUG\HOMEWORK16.5.EXE
C:\USERS\Пк\SOURCE\REPOS\HOMEWORK16.5\DEBUG\HOMEWORK16.5.ILK
C:\USERS\ПК\SOURCE\REPOS\HOMEWORK16.5\DEBUG\HOMEWORK16.5.PDB
